<?xml version="1.0" encoding="UTF-8"?>
<svg xmlns="http://www.w3.org/2000/svg" version="1.0" width="300" height="254" viewBox="0 0 300.000000 254.000000">

<g transform="translate(0.000000,254.000000) scale(0.100000,-0.100000)" fill="red" stroke="none">












<path d="M1471 2038 c-40 -21 -47 -42 -33 -90 26 -86 30 -126 32 -282 0 -87 6 -168 11 -178 8 -15 17 -18 42 -13 18 4 35 10 38 14 4 3 9 94 12 202 4 107 11 208 17 223 15 40 12 102 -5 116 -21 18 -87 23 -114 8z m109 -24 c12 -12 12 -21 0 -71 -8 -33 -16 -141 -19 -253 l-6 -195 -31 -3 -31 -3 -6 83 c-4 46 -7 130 -7 188 0 83 -5 118 -22 167 -22 60 -22 62 -4 82 29 32 94 35 126 5z"/>





<path d="M1331 1749 c-116 -27 -154 -50 -186 -114 -14 -29 -25 -62 -25 -73 0 -15 -12 -28 -40 -42 -43 -22 -53 -36 -20 -27 17 4 19 1 14 -21 -4 -24 -3 -23 14 7 14 25 39 44 96 72 43 21 113 62 157 91 75 50 79 54 79 90 0 21 -1 38 -2 37 -2 0 -41 -10 -87 -20z m79 -22 c0 -19 -20 -37 -94 -85 -51 -34 -114 -71 -140 -81 -53 -23 -57 -17 -29 48 14 33 19 37 35 28 13 -9 20 -9 29 0 14 14 3 33 -19 32 -15 -1 -15 -2 1 -6 20 -5 23 -23 3 -23 -27 0 -26 29 2 49 26 18 57 29 147 50 60 14 65 13 65 -12z"/>
<path d="M1602 1729 c3 -40 6 -44 36 -53 45 -13 92 -58 92 -89 0 -62 -63 -97 -224 -127 -221 -40 -303 -102 -274 -206 17 -61 89 -111 203 -140 23 -6 25 -4 25 27 0 42 -5 49 -53 78 -68 41 -73 85 -12 114 19 9 101 30 183 47 113 23 156 36 186 57 52 38 76 85 76 152 0 52 -2 57 -48 101 -45 43 -77 58 -160 75 l-33 7 3 -43z m133 -9 c118 -57 127 -196 19 -273 -29 -20 -67 -32 -149 -48 -122 -22 -162 -33 -218 -56 -67 -29 -61 -93 12 -135 33 -18 41 -29 41 -52 0 -26 -2 -28 -27 -21 -64 15 -133 54 -153 87 -24 39 -26 95 -4 126 29 41 158 89 289 107 72 10 152 43 175 72 44 56 8 136 -75 163 -28 9 -35 17 -35 37 0 24 2 25 40 20 22 -3 60 -15 85 -27z"/>


<path d="M293 1389 c-9 -9 -6 -24 12 -60 34 -66 101 -237 110 -279 7 -34 5 -33 -81 51 -95 92 -136 119 -182 119 -55 0 -54 -19 5 -79 57 -58 406 -504 435 -556 13 -24 63 -53 259 -151 244 -122 260 -133 337 -228 19 -24 35 -20 21 6 -27 50 -111 115 -230 177 -68 36 -141 75 -162 88 -21 14 -71 37 -110 52 -70 26 -74 29 -123 105 -29 43 -78 108 -111 144 -32 37 -90 108 -128 157 -99 130 -206 255 -217 255 -5 0 -6 5 -3 10 22 35 105 -14 221 -130 91 -91 94 -96 74 -109 -57 -39 22 -131 217 -252 68 -42 128 -88 152 -117 22 -25 44 -43 48 -38 13 13 -108 119 -183 160 -107 59 -244 174 -244 206 0 21 20 40 41 40 29 0 138 -50 223 -103 44 -26 109 -57 145 -68 36 -11 86 -26 111 -35 25 -8 79 -24 120 -34 122 -32 196 -74 280 -159 97 -98 123 -152 150 -311 11 -68 23 -126 25 -129 12 -12 11 12 -5 119 -20 132 -47 198 -119 287 -97 119 -203 180 -409 234 l-82 21 -56 102 c-105 189 -160 266 -190 266 -7 0 -29 29 -48 65 -20 35 -46 71 -59 80 -27 19 -77 20 -77 1 0 -8 22 -63 49 -123 27 -59 47 -110 45 -112 -6 -6 -6 -6 -83 147 -58 113 -80 147 -109 167 -41 28 -53 30 -69 14z m81 -43 c17 -18 45 -60 61 -92 17 -32 53 -103 82 -157 50 -96 87 -177 79 -177 -2 0 -29 11 -60 25 -31 14 -63 25 -71 25 -8 0 -19 17 -25 43 -25 93 -40 138 -75 223 -20 49 -42 101 -50 117 -13 25 -13 27 7 27 11 0 35 -15 52 -34z m170 -79 c30 -32 223 -423 214 -433 -3 -2 -35 13 -73 33 l-68 38 -29 95 c-16 52 -40 119 -54 150 -15 30 -30 69 -34 85 -4 17 -11 38 -15 48 -12 30 25 20 59 -16z m140 -164 c19 -21 168 -275 184 -314 2 -5 -16 -2 -41 7 -39 13 -46 20 -67 72 -13 31 -45 101 -72 154 -26 54 -48 100 -48 103 0 13 22 2 44 -22z"/>
<path d="M2688 1375 c-29 -20 -51 -54 -109 -167 -77 -154 -77 -153 -83 -147 -3 3 17 53 45 112 27 59 49 114 49 122 0 20 -49 20 -77 0 -13 -9 -38 -44 -57 -78 -20 -35 -48 -69 -64 -78 -39 -22 -67 -62 -152 -214 -40 -71 -76 -134 -80 -138 -4 -5 -49 -19 -99 -32 -160 -41 -242 -81 -334 -164 -54 -49 -123 -148 -147 -212 -19 -52 -53 -249 -44 -258 8 -9 13 7 33 128 25 155 52 211 144 308 80 84 161 129 289 162 42 11 85 24 96 30 10 5 48 17 85 25 74 17 93 26 240 109 54 30 118 60 143 67 40 11 47 11 62 -4 15 -15 15 -19 2 -43 -23 -41 -143 -138 -240 -193 -83 -48 -209 -160 -179 -160 8 0 31 20 52 44 22 27 82 72 149 114 127 79 238 176 238 208 0 12 -9 29 -20 39 -19 18 -19 19 42 84 33 36 84 85 112 109 49 40 119 72 132 59 4 -3 -27 -46 -68 -94 -41 -48 -108 -131 -148 -183 -41 -52 -98 -123 -129 -158 -30 -34 -78 -97 -105 -139 -50 -75 -53 -78 -125 -105 -40 -16 -85 -36 -100 -46 -14 -10 -83 -48 -153 -85 -142 -73 -186 -104 -228 -161 -47 -63 -25 -55 36 13 54 59 70 69 296 181 214 107 277 146 278 173 0 10 275 368 358 467 30 36 68 77 85 92 36 33 31 58 -13 58 -48 0 -88 -26 -184 -119 -86 -84 -88 -85 -81 -51 9 44 68 196 106 271 21 42 25 59 16 68 -16 16 -28 14 -69 -14z m47 -22 c-33 -66 -95 -226 -116 -302 -13 -49 -27 -81 -35 -81 -8 0 -39 -11 -70 -25 -31 -14 -58 -25 -60 -25 -18 0 181 382 222 427 17 18 41 33 52 33 20 0 20 -2 7 -27z m-170 -70 c-4 -10 -11 -31 -15 -48 -4 -16 -21 -59 -38 -95 -16 -36 -41 -104 -56 -152 l-27 -87 -66 -35 c-37 -20 -68 -34 -71 -32 -4 5 93 217 155 339 44 85 80 127 110 127 11 0 13 -5 8 -17z m-155 -158 c0 -3 -26 -58 -59 -123 -32 -64 -64 -134 -70 -154 -10 -30 -19 -39 -57 -52 -24 -8 -44 -13 -44 -10 0 2 32 61 71 132 70 124 112 190 133 204 13 9 26 10 26 3z"/>
<path d="M1502 1343 c-23 -4 -23 -5 -22 -184 1 -98 5 -179 9 -179 5 0 22 5 40 11 l31 11 0 143 c0 78 3 157 6 174 6 28 4 31 -17 30 -13 -1 -34 -4 -47 -6z m46 -165 c-5 -143 -8 -163 -24 -175 -18 -13 -19 -10 -25 74 -4 48 -7 125 -8 170 -1 87 -3 83 53 92 5 0 7 -68 4 -161z"/>
<path d="M1597 1133 c-11 -10 -8 -83 3 -83 17 0 11 -26 -9 -45 -11 -9 -66 -35 -123 -56 -57 -21 -111 -48 -120 -60 -27 -32 -2 -69 70 -107 33 -18 63 -32 66 -32 13 0 5 44 -11 62 -27 30 -6 49 105 94 125 51 172 84 172 123 0 16 -10 36 -22 48 -39 35 -118 69 -131 56z m81 -39 c98 -49 76 -102 -63 -158 -171 -69 -178 -74 -152 -128 9 -18 14 -34 12 -36 -5 -5 -87 38 -107 56 -25 21 -22 49 5 66 12 8 62 29 111 47 49 18 103 44 120 60 29 26 30 28 13 46 -20 23 -23 73 -4 73 7 0 36 -12 65 -26z"/>
<path d="M439 922 c16 -31 38 -44 67 -40 42 5 39 24 -6 42 -55 22 -74 21 -61 -2z"/>
<path d="M2547 923 c-43 -17 -44 -36 -3 -41 29 -4 51 9 67 40 12 23 -10 24 -64 1z"/>
<path d="M1515 856 c-19 -13 -20 -20 -11 -175 5 -88 12 -161 16 -161 4 0 10 44 14 98 3 53 9 132 12 175 7 80 3 87 -31 63z m21 -22 c-3 -9 -7 -57 -7 -107 -1 -79 -3 -86 -10 -47 -10 56 -11 154 -2 163 12 13 25 7 19 -9z"/>
<path d="M1550 745 c0 -14 6 -25 14 -25 7 0 26 -10 41 -22 17 -13 26 -16 23 -8 -2 8 -19 21 -36 29 -17 9 -32 22 -32 29 0 9 7 9 30 -3 34 -17 53 -47 44 -68 -3 -8 -1 -18 5 -22 15 -9 13 46 -2 65 -17 22 -59 50 -74 50 -7 0 -13 -11 -13 -25z"/>
</g>
</svg>