<?xml version="1.0" encoding="iso-8859-1"?>
<!-- Generator: Adobe Illustrator 18.1.1, SVG Export Plug-In . SVG Version: 6.00 Build 0)  -->
<svg version="1.1" id="Capa_1" xmlns="http://www.w3.org/2000/svg" xmlns:xlink="http://www.w3.org/1999/xlink" x="0px" y="0px"
	 viewBox="0 0 32.738 32.738" style="enable-background:new 0 0 32.738 32.738;" xml:space="preserve">
<g>
	<path fill="currentColor" d="M31.917,17.595c-0.911-0.691-2.213-0.519-2.91,0.396c-0.066,0.093-0.12,0.19-0.174,0.285
		l-5.095-0.863c0.048-0.353,0.08-0.709,0.08-1.075c0-1.481-0.412-2.863-1.118-4.053l3.248-2.101c0.207,0.14,0.46,0.216,0.728,0.191
		c0.618-0.057,1.072-0.599,1.018-1.221c-0.056-0.618-0.603-1.071-1.221-1.016s-1.071,0.603-1.017,1.221
		c0.005,0.062,0.021,0.117,0.033,0.178l-3.227,2.083c-0.644-0.87-1.454-1.604-2.393-2.151l2.318-3.662
		c0.247,0.04,0.509,0.003,0.742-0.132c0.536-0.312,0.722-0.996,0.409-1.532c-0.311-0.539-0.997-0.725-1.534-0.413
		c-0.536,0.311-0.721,0.997-0.41,1.536c0.03,0.053,0.064,0.099,0.104,0.146l-2.335,3.687c-0.79-0.361-1.645-0.604-2.547-0.689
		l0.474-2.8c0.182-0.044,0.35-0.135,0.47-0.291c0.274-0.364,0.207-0.881-0.156-1.155c-0.363-0.278-0.881-0.207-1.157,0.155
		c-0.274,0.362-0.205,0.881,0.156,1.156c0.035,0.023,0.076,0.032,0.112,0.055l-0.484,2.853c-0.061-0.002-0.119-0.009-0.179-0.009
		c-1.034,0-2.019,0.202-2.922,0.562L10.695,4.83c0.217-0.275,0.35-0.619,0.344-0.997c-0.014-0.873-0.729-1.57-1.602-1.552
		C8.567,2.295,7.873,3.01,7.886,3.882c0.013,0.87,0.729,1.562,1.601,1.55c0.087-0.002,0.17-0.017,0.253-0.03l2.184,4.012
		c-1.092,0.617-2.024,1.488-2.715,2.53l-3.263-2.56c0.065-0.239,0.053-0.503-0.055-0.749C5.636,8.07,4.973,7.817,4.407,8.072
		c-0.568,0.254-0.82,0.919-0.566,1.486c0.257,0.564,0.921,0.816,1.487,0.562c0.055-0.026,0.105-0.06,0.155-0.092l3.316,2.607
		c-0.49,0.937-0.8,1.982-0.884,3.096L3.02,15.722c-0.137-0.322-0.376-0.605-0.709-0.779c-0.771-0.407-1.727-0.113-2.13,0.659
		c-0.405,0.771-0.109,1.725,0.659,2.129c0.771,0.408,1.726,0.11,2.132-0.661c0.041-0.075,0.067-0.153,0.095-0.234l4.845,0.012
		c0.04,0.631,0.146,1.247,0.325,1.833l-3.131,1.206c-0.173-0.179-0.407-0.303-0.675-0.335c-0.616-0.07-1.171,0.372-1.242,0.986
		c-0.071,0.616,0.37,1.178,0.988,1.246c0.615,0.069,1.171-0.374,1.241-0.989c0.006-0.061,0.005-0.117,0.004-0.182l3.084-1.188
		c0.611,1.449,1.641,2.683,2.937,3.542l-1.512,1.561c-0.233-0.089-0.497-0.106-0.752-0.022c-0.592,0.197-0.909,0.831-0.716,1.417
		c0.193,0.59,0.83,0.913,1.418,0.722c0.59-0.198,0.908-0.833,0.717-1.424c-0.021-0.058-0.045-0.11-0.072-0.167l1.619-1.67
		c0.771,0.407,1.617,0.687,2.512,0.819l-0.431,4.041c-0.244,0.056-0.473,0.192-0.639,0.401c-0.38,0.491-0.292,1.193,0.2,1.577
		c0.492,0.381,1.197,0.289,1.578-0.201c0.379-0.492,0.288-1.195-0.203-1.578c-0.048-0.033-0.099-0.062-0.149-0.093l0.433-4.068
		c0.136,0.009,0.27,0.021,0.408,0.021c1.035,0,2.021-0.203,2.93-0.562l0.804,3.58c-0.201,0.146-0.36,0.354-0.431,0.615
		c-0.16,0.6,0.193,1.215,0.794,1.376c0.599,0.157,1.216-0.193,1.376-0.795c0.16-0.601-0.196-1.215-0.796-1.376
		c-0.059-0.016-0.117-0.022-0.178-0.029l-0.832-3.706c0.579-0.301,1.111-0.671,1.597-1.103l1.102,1.552
		c-0.099,0.156-0.15,0.338-0.125,0.537c0.061,0.448,0.477,0.766,0.929,0.708c0.453-0.063,0.768-0.479,0.708-0.93
		c-0.062-0.453-0.479-0.768-0.931-0.707c-0.042,0.006-0.075,0.028-0.115,0.04l-1.137-1.602c0.838-0.854,1.479-1.896,1.864-3.062
		l5.241,0.891c0.108,0.451,0.356,0.869,0.751,1.168c0.913,0.693,2.216,0.52,2.911-0.395C33.008,19.592,32.83,18.29,31.917,17.595z
		 M13.377,15.969c-0.655,0-1.19-0.534-1.19-1.194c0-0.657,0.535-1.188,1.19-1.188c0.658,0,1.192,0.53,1.192,1.188
		C14.569,15.434,14.036,15.969,13.377,15.969z M16.448,18.557c-0.482,0-0.874-0.392-0.874-0.873c0-0.486,0.392-0.875,0.874-0.875
		c0.483,0,0.875,0.388,0.875,0.875C17.322,18.168,16.931,18.557,16.448,18.557z M19.694,14.854c-0.712,0-1.289-0.577-1.289-1.287
		c0-0.715,0.577-1.293,1.289-1.293s1.29,0.578,1.29,1.293C20.984,14.277,20.407,14.854,19.694,14.854z"/>
</g>
<g>
</g>
<g>
</g>
<g>
</g>
<g>
</g>
<g>
</g>
<g>
</g>
<g>
</g>
<g>
</g>
<g>
</g>
<g>
</g>
<g>
</g>
<g>
</g>
<g>
</g>
<g>
</g>
<g>
</g>
</svg>
